…
nyse

## # A tibble: 508 × 6
##    symbol name                             ipo_year sector       indus…¹ summa…²
##    <chr>  <chr>                            <chr>    <chr>        <chr>   <chr>  
##  1 MMM    3M Company                       n/a      Health Care  Medica… https:…
##  2 ABB    ABB Ltd                          n/a      Consumer Du… Electr… https:…
##  3 ABT    Abbott Laboratories              n/a      Health Care  Major … https:…
##  4 ABBV   AbbVie Inc.                      2012     Health Care  Major … https:…
##  5 ACN    Accenture plc                    2001     Miscellaneo… Busine… https:…
##  6 AAP    Advance Auto Parts Inc           n/a      Consumer Se… Other … https:…
##  7 AFL    Aflac Incorporated               n/a      Finance      Accide… https:…
##  8 A      Agilent Technologies, Inc.       1999     Capital Goo… Biotec… https:…
##  9 AEM    Agnico Eagle Mines Limited       n/a      Basic Indus… Precio… https:…
## 10 APD    Air Products and Chemicals, Inc. n/a      Basic Indus… Major … https:…
## # … with 498 more rows, and abbreviated variable names ¹​industry,
## #   ²​summary_quote
…
